{
  "directory": "./IconLibrary/",
  "targetdir": "../Libraries/",
  "targetlibrary": "Application Services Icons",
  "library": [
    {
      "name": "Blank",
      "type": "Icon",
      "url": "",
      "svg": "templates/Blank_template.svg",
      "file": "Darkblue_blank.svg",
      "color": "darkblue"
    },
    {
      "name": "Application Server",
      "type": "Icon",
      "url": "https://pnt.redhat.com/pnt/d-15461235/IconRedHatSof...AWhiteRGB.svg",
      "svg": "Icon-Red_Hat-Software_and_technologies-App_on_server-A-White-RGB.svg",
      "file": "Application_server.svg",
      "color": "darkblue"
    },
    {
      "name": "Decision Management",
      "type": "Icon",
      "url": "https://pnt.redhat.com/pnt/d-14284615/IconRedHatPeo...AWhiteRGB.svg",
      "svg": "Icon-Red_Hat-People_and_Audiences-Architect-A-White-RGB.svg",
      "file": "Decision_management.svg",
      "color": "darkblue"
    },
    {
      "name": "Process Automation",
      "type": "Icon",
      "url": "https://pnt.redhat.com/pnt/d-14358285/IconRedHatSof...AWhiteRGB.svg",
      "svg": "Icon-Red_Hat-Software_and_Technologies-Orchestration-A-White-RGB.svg",
      "file": "Process_automation.svg",
      "color": "darkblue"
    },
    {
      "name": "Datagrid",
      "type": "Icon",
      "url": "https://pnt.redhat.com/pnt/p-17193385/Icon-Red_Hat-...White-RGB.svg",
      "svg": "Icon-Red_Hat-cluster-A-White-RGB.svg",
      "file": "Datagrid.svg",
      "color": "darkblue"
	},
    {
      "name": "API",
      "type": "Icon",
      "url": "https://pnt.redhat.com/pnt/d-16342675/IconRedHatAPIAWhiteRGB.svg",
      "svg": "Icon-Red_Hat-API-A-White-RGB.svg",
      "file": "API.svg",
      "color": "darkblue"
    },
    {
      "name": "Message Broker",
      "type": "Icon",
      "url": "https://pnt.redhat.com/pnt/p-18149655/Icon-Red_Hat-...White-RGB.svg",
      "svg": "Icon-Red_Hat-Envelope-A-White-RGB.svg",
      "file": "Message_broker.svg",
      "color": "darkblue"
    },
    {
      "name": "Event Streaming",
      "type": "Icon",
      "url": "https://pnt.redhat.com/pnt/d-14354435/IconRedHatSof...AWhiteRGB.svg",
      "svg": "Icon-Red_Hat-Software_and_technologies-Data-A-White-RGB.svg",
      "file": "Event_streaming.svg",
      "color": "darkblue"
    },
    {
      "name": "Connector",
      "type": "Icon",
      "url": "https://pnt.redhat.com/pnt/p-15530045/Icon-Red_Hat-...White-RGB.svg",
      "svg": "Icon-Red_Hat-Link-A-White-RGB.svg",
      "file": "Connector.svg",
      "color": "darkblue"
	},
    {
      "name": "Data Router",
      "type": "Icon",
      "url": "https://pnt.redhat.com/pnt/d-15521405/IconRedHatMul...AWhiteRGB.svg",
      "svg": "Icon-Red_Hat-Multiply-A-White-RGB.svg",
      "file": "Data_router.svg",
      "color": "darkblue"
    },
    {
      "name": "Automation",
      "type": "Icon",
      "url": "https://pnt.redhat.com/pnt/d-14320235/IconRedHatSof...AWhiteRGB.svg",
      "svg": "Icon-Red_Hat-Software_and_Technologies-Automation-A-White-RGB.svg",
      "file": "Automation.svg",
      "color": "darkblue"
    },
    {
      "name": "CI/CD Pipeline",
      "type": "Icon",
      "url": "https://pnt.redhat.com/pnt/d-15485835/IconRedHatDia...AWhiteRGB.svg",
      "svg": "Icon-Red_Hat-Diagrams-Progression-A-White-RGB.svg",
      "file": "CI_CD_pipeline.svg",
      "color": "darkblue"
    },
    {
      "name": "Data Science",
      "type": "Icon",
      "url": "https://pnt.redhat.com/pnt/d-14214635/IconRedHatDia...AWhiteRGB.svg",
      "svg": "Icon-Red_Hat-Diagrams-Graph_Exponential_Up-A-White-RGB.svg",
      "file": "Data_science.svg",
      "color": "darkblue"
    },
    {
      "name": "AI/ML",
      "type": "Icon",
      "url": "https://pnt.redhat.com/pnt/p-19219205/Icon-Red_Hat-...White-RGB.svg",
      "svg": "Icon-Red_Hat-AI_ML-A-White-RGB.svg",
      "file": "AI_ML.svg",
      "color": "darkblue"
    }
  ]
}
